Chapter 3 Data manipulation with tidyverse | Statistical Practice in Epidemiology with R
…
births object is a 500 x 8 data.frame.
Let’s convert births to tibble format with as_tibble function.

births_tbl <- as_tibble(births)

class(births_tbl)

## [1] "tbl_df"     "tbl"        "data.frame"

births_tbl

## # A tibble: 500 × 8
##       id bweight lowbw gestwks preterm matage   hyp   sex
##    <dbl>   <dbl> <dbl>   <dbl>   <dbl>  <dbl> <dbl> <dbl>
##  1     1    2974     0    38.5       0     34     0     2
##  2     2    3270     0    NA        NA     30     0     1
##  3     3    2620     0    38.2       0     35     0     2
##  4     4    3751     0    39.8       0     31     0     1
##  5     5    3200     0    38.9       0     33     1     1
##  6     6    3673     0    41.0       0     33     0     2
##  7     7    3628     0    42.1       0     29     0     2
##  8     8    3773     0    40.2       0     37     0     1
##  9     9    3960     0    42.0       0     36     0     2
## 10    10    3405     0    39.3       0     39     0     1
## # ℹ 490 more rows
…
births_tbl

## # A tibble: 500 × 10
##       id bweight lowbw gestwks preterm matage hyp    sex   agegrp  gest4        
##    <dbl>   <dbl> <dbl>   <dbl>   <dbl>  <dbl> <fct>  <fct> <fct>   <chr>        
##  1     1    2974     0    38.5       0     34 normal F     [30,35) more than 35…
##  2     2    3270     0    NA        NA     30 normal M     [30,35) <NA>         
##  3     3    2620     0    38.2       0     35 normal F     [35,40) more than 35…
##  4     4    3751     0    39.8       0     31 normal M     [30,35) more than 35…
##  5     5    3200     0    38.9       0     33 hyper  M     [30,35) more than 35…
##  6     6    3673     0    41.0       0     33 normal F     [30,35) more than 35…
##  7     7    3628     0    42.1       0     29 normal F     [25,30) more than 35…
##  8     8    3773     0    40.2       0     37 normal M     [35,40) more than 35…
##  9     9    3960     0    42.0       0     36 normal F     [35,40) more than 35…
## 10    10    3405     0    39.3       0     39 normal M     [35,40) more than 35…
## # ℹ 490 more rows
…
3.6 select columns, filter and arrange rows

select is used for column sub-setting while filter is for row sub-setting.
They are equivalent to the [] in R base language.
Let’s display a table where only babies’ id, sex, bweight and mothers’
agegrp are kept for babies with a bweight above 4000g.

births_tbl |>
  # select only id, women age group, sex 
  # and birth weight of the baby
  select(id, agegrp, sex, bweight) |>
  # keep only babies weighing more than 4000g
  filter(bweight > 4000)

## # A tibble: 30 × 4
##       id agegrp  sex   bweight
##    <dbl> <fct>   <fct>   <dbl>
##  1    11 [35,40) M        4020
##  2    31 [30,35) F        4022
##  3    57 [25,30) M        4501
##  4    78 [35,40) M        4512
##  5    86 [30,35) M        4141
##  6    87 [30,35) M        4071
##  7    92 [30,35) F        4027
##  8   122 [30,35) M        4092
##  9   139 [35,40) M        4069
## 10   170 [40,45) M        4057
## # ℹ 20 more rows
…
births_tbl |>
  # select only id, women age group, sex 
  # and birth weight of the baby
  select(
    id,
    "Age group" = agegrp,
    Sex = sex,
    "Birth weight" = bweight
  ) |>
  # rearrange rows to put the heaviest newborn on top
  arrange(desc(`Birth weight`))

## # A tibble: 500 × 4
##       id `Age group` Sex   `Birth weight`
##    <dbl> <fct>       <fct>          <dbl>
##  1   319 [30,35)     M               4553
##  2   474 [25,30)     M               4516
##  3    78 [35,40)     M               4512
##  4    57 [25,30)     M               4501
##  5   238 [25,30)     M               4436
##  6   288 [30,35)     M               4423
##  7   206 [40,45)     M               4340
##  8   355 [35,40)     M               4319
##  9   459 [30,35)     M               4304
## 10   469 [30,35)     F               4300
## # ℹ 490 more rows
…
births_tbl |>
  # select only id, women age group, sex 
  # and birth weight of the baby
  select(
    id,
    "Age group" = agegrp,
    Sex = sex,
    "Birth weight" = bweight
  ) |>
  # rearrange rows to put the heaviest newborn on top
  arrange(Sex, desc(`Birth weight`))

## # A tibble: 500 × 4
##       id `Age group` Sex   `Birth weight`
##    <dbl> <fct>       <fct>          <dbl>
##  1   319 [30,35)     M               4553
##  2   474 [25,30)     M               4516
##  3    78 [35,40)     M               4512
##  4    57 [25,30)     M               4501
##  5   238 [25,30)     M               4436
##  6   288 [30,35)     M               4423
##  7   206 [40,45)     M               4340
##  8   355 [35,40)     M               4319
##  9   459 [30,35)     M               4304
## 10   387 [35,40)     M               4287
## # ℹ 490 more rows
…
fem.csv.tidy

## # A tibble: 118 × 9
##       ID   AGE    IQ ANXIETY DEPRESS SLEEP   SEX  LIFE WEIGHT
##    <dbl> <dbl> <dbl>   <dbl>   <dbl> <dbl> <dbl> <dbl>  <dbl>
##  1     1    39    94       2       2     2     1     1   2.23
##  2     2    41    89       2       2     2     1     1   1   
##  3     3    42    83       3       3     2     1     1   1.82
##  4     4    30    99       2       2     2     1     1  -1.18
##  5     5    35    94       2       1     1     1     2  -0.14
##  6     6    44    90      NA       1     2     2     2   0.41
##  7     7    31    94       2       2    NA     1     1  -0.68
##  8     8    39    87       3       2     2     1     2   1.59
##  9     9    35    NA       3       2     2     1     1  -0.55
## 10    10    33    92       2       2     2     1     1   0.36
## # ℹ 108 more rows
…
occoh.txt.tidy

## # A tibble: 1,501 × 6
##       id birth entry      exit       death      chdeath
##    <dbl> <dbl> <date>     <date>     <date>       <dbl>
##  1     1     1 1943-02-19 1990-08-14 2009-12-31       0
##  2     2     2 1934-07-06 1990-08-14 2009-12-31       0
##  3     3     3 1939-03-05 1990-08-14 2009-12-31       0
##  4     4     4 1939-07-03 1990-08-14 2009-12-31       0
##  5     5     5 1935-02-18 1990-08-14 2006-03-13       1
##  6     6     6 1936-03-07 1990-08-14 2007-06-10       1
##  7     7     7 1944-03-30 1990-08-15 2007-04-14       1
##  8     8     8 1942-11-24 1990-08-15 2006-10-30       1
##  9     9     9 1942-09-11 1990-08-15 2009-12-31       0
## 10    10    10 1931-03-01 1990-08-15 2009-12-31       0
## # ℹ 1,491 more rows
…
